<svg width="24" height="24" viewBox="0 0 24 24" fill="none" xmlns="http://www.w3.org/2000/svg">
<path d="M8.59009 16.34L13.1701 11.75L8.59009 7.16L10.0001 5.75L16.0001 11.75L10.0001 17.75L8.59009 16.34Z" fill="#3C3B39"/>
</svg>
